{
    "constructors": [
        {
            "annotations": [],
            "location": {
                "column": 13,
                "line": 4
            },
            "modifiers": [
                "private"
            ],
            "name": "DependentsService",
            "parameters": [],
            "references": [],
            "type": null
        }
    ],
    "externalReferences": [],
    "id": "DependentsService",
    "innerClasses": [],
    "interfaces": [],
    "key": "DependentsService",
    "methods": [
        {
            "annotations": [],
            "location": {
                "column": 17,
                "line": 17
            },
            "modifiers": [
                "public"
            ],
            "name": "copyDependentsPreviousToNew",
            "parameters": [
                {
                    "name": "prevDependents",
                    "type": "Dependents__c"
                },
                {
                    "name": "newDependents",
                    "type": "Dependents__c"
                }
            ],
            "references": [],
            "returnType": "void",
            "type": null
        },
        {
            "annotations": [],
            "location": {
                "column": 17,
                "line": 60
            },
            "modifiers": [
                "public"
            ],
            "name": "moveDependents",
            "parameters": [
                {
                    "name": "dep",
                    "type": "Dependents__c"
                },
                {
                    "name": "isCallFromTrigger",
                    "type": "Boolean"
                }
            ],
            "references": [],
            "returnType": "void",
            "type": null
        },
        {
            "annotations": [],
            "location": {
                "column": 33,
                "line": 93
            },
            "modifiers": [
                "private"
            ],
            "name": "packDependentsIntoList",
            "parameters": [
                {
                    "name": "depRecord",
                    "type": "Dependents__c"
                },
                {
                    "name": "isCallFromTrigger",
                    "type": "Boolean"
                }
            ],
            "references": [],
            "returnType": "List",
            "type": null
        },
        {
            "annotations": [],
            "location": {
                "column": 27,
                "line": 125
            },
            "modifiers": [
                "private"
            ],
            "name": "copyFieldsToDummyRecord",
            "parameters": [
                {
                    "name": "sourceRecord",
                    "type": "Dependents__c"
                },
                {
                    "name": "i",
                    "type": "Integer"
                }
            ],
            "references": [],
            "returnType": "Dependents__c",
            "type": null
        },
        {
            "annotations": [],
            "location": {
                "column": 27,
                "line": 155
            },
            "modifiers": [
                "private"
            ],
            "name": "copyFieldsFromDummyRecord",
            "parameters": [
                {
                    "name": "dummyRecord",
                    "type": "Dependents__c"
                },
                {
                    "name": "targetRecord",
                    "type": "Dependents__c"
                },
                {
                    "name": "i",
                    "type": "Integer"
                }
            ],
            "references": [],
            "returnType": "Dependents__c",
            "type": null
        },
        {
            "annotations": [],
            "location": {
                "column": 26,
                "line": 184
            },
            "modifiers": [
                "public"
            ],
            "name": "removeDependentData",
            "parameters": [
                {
                    "name": "depRecord",
                    "type": "Dependents__c"
                },
                {
                    "name": "i",
                    "type": "Integer"
                }
            ],
            "references": [],
            "returnType": "Dependents__c",
            "type": null
        }
    ],
    "name": "DependentsService",
    "namespace": null,
    "parentClass": "",
    "properties": [
        {
            "annotations": [],
            "location": {
                "column": 37,
                "line": 6
            },
            "modifiers": [
                "private",
                "static"
            ],
            "name": "Instance",
            "references": [],
            "type": "DependentsService"
        }
    ],
    "tableDeclaration": {
        "annotations": [],
        "location": {
            "column": 30,
            "line": 1
        },
        "modifiers": [
            "public",
            "without sharing"
        ],
        "name": "DependentsService",
        "references": [],
        "type": "DependentsService"
    },
    "variables": [
        {
            "annotations": [],
            "location": {
                "column": 59,
                "line": 17
            },
            "modifiers": [],
            "name": "prevDependents",
            "references": [],
            "type": "Dependents__c"
        },
        {
            "annotations": [],
            "location": {
                "column": 89,
                "line": 17
            },
            "modifiers": [],
            "name": "newDependents",
            "references": [],
            "type": "Dependents__c"
        },
        {
            "annotations": [],
            "location": {
                "column": 46,
                "line": 60
            },
            "modifiers": [],
            "name": "dep",
            "references": [],
            "type": "Dependents__c"
        },
        {
            "annotations": [],
            "location": {
                "column": 59,
                "line": 60
            },
            "modifiers": [],
            "name": "isCallFromTrigger",
            "references": [],
            "type": "Boolean"
        },
        {
            "annotations": [],
            "location": {
                "column": 29,
                "line": 64
            },
            "modifiers": [],
            "name": "condensedList",
            "references": [],
            "type": "List<Dependents__c>"
        },
        {
            "annotations": [],
            "location": {
                "column": 26,
                "line": 71
            },
            "modifiers": [],
            "name": "i",
            "references": [],
            "type": "Integer"
        },
        {
            "annotations": [],
            "location": {
                "column": 26,
                "line": 77
            },
            "modifiers": [],
            "name": "i",
            "references": [],
            "type": "Integer"
        },
        {
            "annotations": [],
            "location": {
                "column": 70,
                "line": 93
            },
            "modifiers": [],
            "name": "depRecord",
            "references": [],
            "type": "Dependents__c"
        },
        {
            "annotations": [],
            "location": {
                "column": 89,
                "line": 93
            },
            "modifiers": [],
            "name": "isCallFromTrigger",
            "references": [],
            "type": "Boolean"
        },
        {
            "annotations": [],
            "location": {
                "column": 29,
                "line": 95
            },
            "modifiers": [],
            "name": "returnList",
            "references": [],
            "type": "List<Dependents__c>"
        },
        {
            "annotations": [],
            "location": {
                "column": 22,
                "line": 97
            },
            "modifiers": [],
            "name": "i",
            "references": [],
            "type": "Integer"
        },
        {
            "annotations": [],
            "location": {
                "column": 65,
                "line": 125
            },
            "modifiers": [],
            "name": "sourceRecord",
            "references": [],
            "type": "Dependents__c"
        },
        {
            "annotations": [],
            "location": {
                "column": 87,
                "line": 125
            },
            "modifiers": [],
            "name": "i",
            "references": [],
            "type": "Integer"
        },
        {
            "annotations": [],
            "location": {
                "column": 23,
                "line": 126
            },
            "modifiers": [],
            "name": "dummyRecord",
            "references": [],
            "type": "Dependents__c"
        },
        {
            "annotations": [],
            "location": {
                "column": 67,
                "line": 155
            },
            "modifiers": [],
            "name": "dummyRecord",
            "references": [],
            "type": "Dependents__c"
        },
        {
            "annotations": [],
            "location": {
                "column": 94,
                "line": 155
            },
            "modifiers": [],
            "name": "targetRecord",
            "references": [],
            "type": "Dependents__c"
        },
        {
            "annotations": [],
            "location": {
                "column": 116,
                "line": 155
            },
            "modifiers": [],
            "name": "i",
            "references": [],
            "type": "Integer"
        },
        {
            "annotations": [],
            "location": {
                "column": 60,
                "line": 184
            },
            "modifiers": [],
            "name": "depRecord",
            "references": [],
            "type": "Dependents__c"
        },
        {
            "annotations": [],
            "location": {
                "column": 79,
                "line": 184
            },
            "modifiers": [],
            "name": "i",
            "references": [],
            "type": "Integer"
        }
    ]
}