{
    "constructors": [
        {
            "annotations": [],
            "location": {
                "column": 13,
                "line": 9
            },
            "modifiers": [
                "private"
            ],
            "name": "HouseholdTestData",
            "parameters": [],
            "references": [],
            "type": null
        }
    ],
    "externalReferences": [],
    "id": "HouseholdTestData",
    "innerClasses": [],
    "interfaces": [],
    "key": "HouseholdTestData",
    "methods": [
        {
            "annotations": [],
            "location": {
                "column": 56,
                "line": 15
            },
            "modifiers": [
                "protected",
                "override"
            ],
            "name": "getDefaultValueMap",
            "parameters": [],
            "references": [],
            "returnType": "Map",
            "type": null
        },
        {
            "annotations": [],
            "location": {
                "column": 25,
                "line": 25
            },
            "modifiers": [
                "public"
            ],
            "name": "insertHousehold",
            "parameters": [],
            "references": [],
            "returnType": "Household__c",
            "type": null
        },
        {
            "annotations": [],
            "location": {
                "column": 43,
                "line": 33
            },
            "modifiers": [
                "protected",
                "override"
            ],
            "name": "getSObjectType",
            "parameters": [],
            "references": [],
            "returnType": "Schema.SObjectType",
            "type": null
        },
        {
            "annotations": [],
            "location": {
                "column": 25,
                "line": 41
            },
            "modifiers": [
                "public"
            ],
            "name": "create",
            "parameters": [],
            "references": [],
            "returnType": "Household__c",
            "type": null
        }
    ],
    "name": "HouseholdTestData",
    "namespace": null,
    "parentClass": "SObjectTestData",
    "properties": [
        {
            "annotations": [],
            "location": {
                "column": 33,
                "line": 7
            },
            "modifiers": [
                "private",
                "static",
                "final"
            ],
            "name": "NAME",
            "references": [],
            "type": "String"
        },
        {
            "annotations": [],
            "location": {
                "column": 25,
                "line": 48
            },
            "modifiers": [
                "private"
            ],
            "name": "DefaultHousehold",
            "references": [],
            "type": "Household__c"
        },
        {
            "annotations": [],
            "location": {
                "column": 37,
                "line": 61
            },
            "modifiers": [
                "private",
                "static"
            ],
            "name": "Instance",
            "references": [],
            "type": "HouseholdTestData"
        }
    ],
    "tableDeclaration": {
        "annotations": [
            {
                "name": "IsTest"
            }
        ],
        "location": {
            "column": 14,
            "line": 5
        },
        "modifiers": [
            "public",
            "testMethod"
        ],
        "name": "HouseholdTestData",
        "references": [],
        "type": "HouseholdTestData"
    },
    "variables": []
}