{
    "constructors": [],
    "externalReferences": [],
    "id": "scheduledDisablePortalAccessTest",
    "innerClasses": [],
    "interfaces": [],
    "key": "scheduledDisablePortalAccessTest",
    "methods": [
        {
            "annotations": [
                {
                    "name": "IsTest"
                }
            ],
            "location": {
                "column": 25,
                "line": 5
            },
            "modifiers": [
                "private",
                "static",
                "testMethod"
            ],
            "name": "testSchedule",
            "parameters": [],
            "references": [],
            "returnType": "void",
            "type": null
        },
        {
            "annotations": [
                {
                    "name": "IsTest"
                }
            ],
            "location": {
                "column": 25,
                "line": 17
            },
            "modifiers": [
                "private",
                "static",
                "testMethod"
            ],
            "name": "userPortalEnabledActionBatch_deletesSPUserInBucketAccount_deletesSPUserIn1To1Account",
            "parameters": [],
            "references": [],
            "returnType": "void",
            "type": null
        }
    ],
    "name": "scheduledDisablePortalAccessTest",
    "namespace": null,
    "parentClass": "",
    "properties": [],
    "tableDeclaration": {
        "annotations": [
            {
                "name": "IsTest"
            }
        ],
        "location": {
            "column": 15,
            "line": 2
        },
        "modifiers": [
            "private",
            "testMethod"
        ],
        "name": "scheduledDisablePortalAccessTest",
        "references": [],
        "type": "scheduledDisablePortalAccessTest"
    },
    "variables": [
        {
            "annotations": [],
            "location": {
                "column": 16,
                "line": 9
            },
            "modifiers": [],
            "name": "job0Id",
            "references": [],
            "type": "Id"
        },
        {
            "annotations": [],
            "location": {
                "column": 21,
                "line": 12
            },
            "modifiers": [],
            "name": "ct",
            "references": [],
            "type": "CronTrigger"
        },
        {
            "annotations": [],
            "location": {
                "column": 17,
                "line": 19
            },
            "modifiers": [],
            "name": "thisContact",
            "references": [],
            "type": "Contact"
        }
    ]
}