{
    "constructors": [],
    "externalReferences": [],
    "id": "SchoolDocumentsQuickViewControllerTest",
    "innerClasses": [
        {
            "constructors": [
                {
                    "annotations": [],
                    "location": {
                        "column": 16,
                        "line": 17
                    },
                    "modifiers": [
                        "public"
                    ],
                    "name": "TestDataLocal",
                    "parameters": [],
                    "references": [],
                    "type": null
                }
            ],
            "externalReferences": [],
            "id": "TestDataLocal",
            "innerClasses": [],
            "interfaces": [],
            "key": "TestDataLocal",
            "methods": [],
            "name": "TestDataLocal",
            "namespace": null,
            "parentClass": "",
            "properties": [
                {
                    "annotations": [],
                    "location": {
                        "column": 17,
                        "line": 5
                    },
                    "modifiers": [
                        "private"
                    ],
                    "name": "school1",
                    "references": [],
                    "type": "Account"
                },
                {
                    "annotations": [],
                    "location": {
                        "column": 17,
                        "line": 6
                    },
                    "modifiers": [
                        "private"
                    ],
                    "name": "staff1",
                    "references": [],
                    "type": "Contact"
                },
                {
                    "annotations": [],
                    "location": {
                        "column": 25,
                        "line": 6
                    },
                    "modifiers": [
                        "private"
                    ],
                    "name": "parentA",
                    "references": [],
                    "type": "Contact"
                },
                {
                    "annotations": [],
                    "location": {
                        "column": 34,
                        "line": 6
                    },
                    "modifiers": [
                        "private"
                    ],
                    "name": "parentB",
                    "references": [],
                    "type": "Contact"
                },
                {
                    "annotations": [],
                    "location": {
                        "column": 43,
                        "line": 6
                    },
                    "modifiers": [
                        "private"
                    ],
                    "name": "student1",
                    "references": [],
                    "type": "Contact"
                },
                {
                    "annotations": [],
                    "location": {
                        "column": 53,
                        "line": 6
                    },
                    "modifiers": [
                        "private"
                    ],
                    "name": "student2",
                    "references": [],
                    "type": "Contact"
                },
                {
                    "annotations": [],
                    "location": {
                        "column": 12,
                        "line": 7
                    },
                    "modifiers": [
                        "private"
                    ],
                    "name": "academicYearId",
                    "references": [],
                    "type": "Id"
                },
                {
                    "annotations": [],
                    "location": {
                        "column": 16,
                        "line": 8
                    },
                    "modifiers": [
                        "private"
                    ],
                    "name": "academicYearName",
                    "references": [],
                    "type": "String"
                },
                {
                    "annotations": [],
                    "location": {
                        "column": 16,
                        "line": 9
                    },
                    "modifiers": [
                        "private"
                    ],
                    "name": "pfs",
                    "references": [],
                    "type": "PFS__c"
                },
                {
                    "annotations": [],
                    "location": {
                        "column": 22,
                        "line": 10
                    },
                    "modifiers": [
                        "private"
                    ],
                    "name": "applicant1",
                    "references": [],
                    "type": "Applicant__c"
                },
                {
                    "annotations": [],
                    "location": {
                        "column": 27,
                        "line": 11
                    },
                    "modifiers": [
                        "private"
                    ],
                    "name": "studentFolder1",
                    "references": [],
                    "type": "Student_Folder__c"
                },
                {
                    "annotations": [],
                    "location": {
                        "column": 34,
                        "line": 12
                    },
                    "modifiers": [
                        "private"
                    ],
                    "name": "schoolPFS",
                    "references": [],
                    "type": "School_PFS_Assignment__c"
                },
                {
                    "annotations": [],
                    "location": {
                        "column": 30,
                        "line": 13
                    },
                    "modifiers": [
                        "private"
                    ],
                    "name": "rd1",
                    "references": [],
                    "type": "Required_Document__c"
                },
                {
                    "annotations": [],
                    "location": {
                        "column": 28,
                        "line": 14
                    },
                    "modifiers": [
                        "private"
                    ],
                    "name": "fd1",
                    "references": [],
                    "type": "Family_Document__c"
                },
                {
                    "annotations": [],
                    "location": {
                        "column": 39,
                        "line": 15
                    },
                    "modifiers": [
                        "private"
                    ],
                    "name": "sda1",
                    "references": [],
                    "type": "School_Document_Assignment__c"
                }
            ],
            "tableDeclaration": {
                "annotations": [],
                "location": {
                    "column": 18,
                    "line": 3
                },
                "modifiers": [
                    "public"
                ],
                "name": "TestDataLocal",
                "references": [],
                "type": "TestDataLocal"
            },
            "variables": [
                {
                    "annotations": [],
                    "location": {
                        "column": 30,
                        "line": 35
                    },
                    "modifiers": [],
                    "name": "ay",
                    "references": [],
                    "type": "Academic_Year__c"
                }
            ]
        }
    ],
    "interfaces": [],
    "key": "SchoolDocumentsQuickViewControllerTest",
    "methods": [
        {
            "annotations": [
                {
                    "name": "IsTest"
                }
            ],
            "location": {
                "column": 28,
                "line": 58
            },
            "modifiers": [
                "private",
                "static",
                "testMethod"
            ],
            "name": "testLoadDocuments",
            "parameters": [],
            "references": [],
            "returnType": "void",
            "type": null
        },
        {
            "annotations": [
                {
                    "name": "IsTest"
                }
            ],
            "location": {
                "column": 28,
                "line": 119
            },
            "modifiers": [
                "private",
                "static",
                "testMethod"
            ],
            "name": "testLoadDocumentsDeletedDoesntShow",
            "parameters": [],
            "references": [],
            "returnType": "void",
            "type": null
        }
    ],
    "name": "SchoolDocumentsQuickViewControllerTest",
    "namespace": null,
    "parentClass": "",
    "properties": [],
    "tableDeclaration": {
        "annotations": [
            {
                "name": "IsTest"
            }
        ],
        "location": {
            "column": 15,
            "line": 2
        },
        "modifiers": [
            "private",
            "testMethod"
        ],
        "name": "SchoolDocumentsQuickViewControllerTest",
        "references": [],
        "type": "SchoolDocumentsQuickViewControllerTest"
    },
    "variables": [
        {
            "annotations": [],
            "location": {
                "column": 23,
                "line": 60
            },
            "modifiers": [],
            "name": "TestDataLocal",
            "references": [],
            "type": "SchoolDocumentsQuickViewControllerTest.TestDataLocal"
        },
        {
            "annotations": [],
            "location": {
                "column": 30,
                "line": 62
            },
            "modifiers": [],
            "name": "requiredDocument",
            "references": [],
            "type": "Required_Document__c"
        },
        {
            "annotations": [],
            "location": {
                "column": 35,
                "line": 67
            },
            "modifiers": [],
            "name": "documentType",
            "references": [],
            "type": "Document_Type_Settings__c"
        },
        {
            "annotations": [],
            "location": {
                "column": 16,
                "line": 73
            },
            "modifiers": [],
            "name": "documentYear",
            "references": [],
            "type": "String"
        },
        {
            "annotations": [],
            "location": {
                "column": 28,
                "line": 75
            },
            "modifiers": [],
            "name": "familyDocument",
            "references": [],
            "type": "Family_Document__c"
        },
        {
            "annotations": [],
            "location": {
                "column": 39,
                "line": 93
            },
            "modifiers": [],
            "name": "sda1",
            "references": [],
            "type": "School_Document_Assignment__c"
        },
        {
            "annotations": [],
            "location": {
                "column": 23,
                "line": 105
            },
            "modifiers": [],
            "name": "testPage",
            "references": [],
            "type": "System.PageReference"
        },
        {
            "annotations": [],
            "location": {
                "column": 44,
                "line": 109
            },
            "modifiers": [],
            "name": "quickViewDocuments",
            "references": [],
            "type": "SchoolDocumentsQuickViewController"
        },
        {
            "annotations": [],
            "location": {
                "column": 23,
                "line": 121
            },
            "modifiers": [],
            "name": "TestDataLocal",
            "references": [],
            "type": "SchoolDocumentsQuickViewControllerTest.TestDataLocal"
        },
        {
            "annotations": [],
            "location": {
                "column": 30,
                "line": 123
            },
            "modifiers": [],
            "name": "requiredDocument",
            "references": [],
            "type": "Required_Document__c"
        },
        {
            "annotations": [],
            "location": {
                "column": 35,
                "line": 128
            },
            "modifiers": [],
            "name": "documentType",
            "references": [],
            "type": "Document_Type_Settings__c"
        },
        {
            "annotations": [],
            "location": {
                "column": 16,
                "line": 134
            },
            "modifiers": [],
            "name": "documentYear",
            "references": [],
            "type": "String"
        },
        {
            "annotations": [],
            "location": {
                "column": 28,
                "line": 136
            },
            "modifiers": [],
            "name": "familyDocument",
            "references": [],
            "type": "Family_Document__c"
        },
        {
            "annotations": [],
            "location": {
                "column": 39,
                "line": 154
            },
            "modifiers": [],
            "name": "sda1",
            "references": [],
            "type": "School_Document_Assignment__c"
        },
        {
            "annotations": [],
            "location": {
                "column": 23,
                "line": 166
            },
            "modifiers": [],
            "name": "testPage",
            "references": [],
            "type": "System.PageReference"
        },
        {
            "annotations": [],
            "location": {
                "column": 44,
                "line": 170
            },
            "modifiers": [],
            "name": "quickViewDocuments",
            "references": [],
            "type": "SchoolDocumentsQuickViewController"
        }
    ]
}