{
    "constructors": [],
    "externalReferences": [],
    "id": "SchoolPFSLockSiblings",
    "innerClasses": [],
    "interfaces": [],
    "key": "SchoolPFSLockSiblings",
    "methods": [
        {
            "annotations": [],
            "location": {
                "column": 24,
                "line": 14
            },
            "modifiers": [
                "static",
                "public"
            ],
            "name": "lockOrUnlockSiblingSPFSs",
            "parameters": [
                {
                    "name": "updatedSPFSs",
                    "type": "List"
                }
            ],
            "references": [],
            "returnType": "void",
            "type": null
        }
    ],
    "name": "SchoolPFSLockSiblings",
    "namespace": null,
    "parentClass": "",
    "properties": [
        {
            "annotations": [],
            "location": {
                "column": 26,
                "line": 8
            },
            "modifiers": [
                "static",
                "public"
            ],
            "name": "isFirstRun",
            "references": [],
            "type": "Boolean"
        }
    ],
    "tableDeclaration": {
        "annotations": [],
        "location": {
            "column": 30,
            "line": 1
        },
        "modifiers": [
            "public",
            "without sharing"
        ],
        "name": "SchoolPFSLockSiblings",
        "references": [],
        "type": "SchoolPFSLockSiblings"
    },
    "variables": [
        {
            "annotations": [],
            "location": {
                "column": 80,
                "line": 14
            },
            "modifiers": [],
            "name": "updatedSPFSs",
            "references": [],
            "type": "List<School_PFS_Assignment__c>"
        },
        {
            "annotations": [],
            "location": {
                "column": 17,
                "line": 16
            },
            "modifiers": [],
            "name": "pfsIds",
            "references": [],
            "type": "Set<Id>"
        },
        {
            "annotations": [],
            "location": {
                "column": 17,
                "line": 17
            },
            "modifiers": [],
            "name": "schoolIds",
            "references": [],
            "type": "Set<Id>"
        },
        {
            "annotations": [],
            "location": {
                "column": 47,
                "line": 19
            },
            "modifiers": [],
            "name": "customKeyToSPFS",
            "references": [],
            "type": "Map<String,School_PFS_Assignment__c>"
        },
        {
            "annotations": [],
            "location": {
                "column": 39,
                "line": 25
            },
            "modifiers": [],
            "name": "spfs",
            "references": [],
            "type": "School_PFS_Assignment__c"
        },
        {
            "annotations": [],
            "location": {
                "column": 20,
                "line": 28
            },
            "modifiers": [],
            "name": "customKey",
            "references": [],
            "type": "String"
        },
        {
            "annotations": [],
            "location": {
                "column": 40,
                "line": 33
            },
            "modifiers": [],
            "name": "siblingsToUpdate",
            "references": [],
            "type": "List<School_PFS_Assignment__c>"
        },
        {
            "annotations": [],
            "location": {
                "column": 40,
                "line": 36
            },
            "modifiers": [],
            "name": "possibleSiblings",
            "references": [],
            "type": "List<School_PFS_Assignment__c>"
        },
        {
            "annotations": [],
            "location": {
                "column": 39,
                "line": 43
            },
            "modifiers": [],
            "name": "siblingSPFS",
            "references": [],
            "type": "School_PFS_Assignment__c"
        },
        {
            "annotations": [],
            "location": {
                "column": 20,
                "line": 44
            },
            "modifiers": [],
            "name": "customKey",
            "references": [],
            "type": "String"
        },
        {
            "annotations": [],
            "location": {
                "column": 38,
                "line": 45
            },
            "modifiers": [],
            "name": "updatedSPFS",
            "references": [],
            "type": "School_PFS_Assignment__c"
        }
    ]
}